Calculate dumpsite scores — assess_dumpsites • SCI
…
#> # Rowwise: 
#>   sci_subshed            dumpsite_count applied_influence subshed_length_meters
#>   <chr>                           <int>             <dbl>                 <dbl>
#> 1 Broad Branch                        1                -1                 9090.
#> 2 Fort Davis Tributary                1                -1                 1198.
#> 3 Fort Dupont Tributary               1                -2                 8637.
#> 4 Fort Stanton Tributary              1                -2                 2214.
#> 5 Oxon Run                            1                -1                 9965.
#> 6 Rock Creek                          2                -2                32011.
#> 7 Watts Branch                        1                -2                 6013.
#> # ℹ 4 more variables: subshed_length_miles <dbl>, sites_per_mile <dbl>,
#> #   score <dbl>, score_weighted <dbl>
#> 
#> $score
#> # A tibble: 25 × 2
#> # Rowwise: 
#>    sci_subshed            Dumpsites
#>    <chr>                      <dbl>
#>  1 Broad Branch                   8
#>  2 Fort Davis Tributary           2
#>  3 Fort Dupont Tributary          7
#>  4 Fort Stanton Tributary         4
#>  5 Oxon Run                       8
#>  6 Rock Creek                     7
#>  7 Watts Branch                   6
#>  8 Battery Kemble Creek          10
#>  9 Dalecarlia Tributary          10
#> 10 Dumbarton Oaks                10
#> # ℹ 15 more rows
…
